{
    "KPlugin": {
        "Authors": [
            {
                "Email": "mart@kde.org",
                "Name": "Marco Martin",
                "Name[ar]": "Marco Martin",
                "Name[az]": "Marco Martin",
                "Name[be]": "Marco Martin",
                "Name[bg]": "Марко Мартин",
                "Name[ca@valencia]": "Marco Martin",
                "Name[ca]": "Marco Martin",
                "Name[cs]": "Marco Martin",
                "Name[da]": "Marco Martin",
                "Name[de]": "Marco Martin",
                "Name[en_GB]": "Marco Martin",
                "Name[es]": "Marco Martin",
                "Name[et]": "Marco Martin",
                "Name[eu]": "Marco Martin",
                "Name[fi]": "Marco Martin",
                "Name[fr]": "Marco Martin",
                "Name[hu]": "Marco Martin",
                "Name[ia]": "Marco Martin",
                "Name[id]": "Marco Martin",
                "Name[is]": "Marco Martin",
                "Name[it]": "Marco Martin",
                "Name[ja]": "Marco Martin",
                "Name[ka]": "მაკრო მარტინი",
                "Name[ko]": "Marco Martin",
                "Name[lt]": "Marco Martin",
                "Name[nl]": "Marco Martin",
                "Name[nn]": "Marco Martin",
                "Name[pa]": "ਮਾਰਕੋ ਮਾਰਟਿਨ",
                "Name[pl]": "Marco Martin",
                "Name[pt]": "Marco Martin",
                "Name[pt_BR]": "Marco Martin",
                "Name[ro]": "Marco Martin",
                "Name[ru]": "Marco Martin",
                "Name[sk]": "Marco Martin",
                "Name[sl]": "Marco Martin",
                "Name[sv]": "Marco Martin",
                "Name[ta]": "மார்க்கோ மார்ட்டின்",
                "Name[tr]": "Marco Martin",
                "Name[uk]": "Marco Martin",
                "Name[vi]": "Marco Martin",
                "Name[x-test]": "xxMarco Martinxx",
                "Name[zh_CN]": "Marco Martin"
            }
        ],
        "BugReportUrl": "https://bugs.kde.org/enter_bug.cgi?product=plasmashell&component=System%20Tray",
        "Category": "Windows and Tasks",
        "EnabledByDefault": true,
        "FormFactors": [
            "desktop"
        ],
        "Icon": "preferences-desktop-notification",
        "Id": "org.kde.plasma.private.systemtray",
        "License": "GPL-2.0+",
        "Name": "System Tray",
        "Name[af]": "Stelsellaai",
        "Name[ar]": "صينية النظام",
        "Name[az]": "Sistem Çəkməcəsi",
        "Name[be@latin]": "Systemny trej",
        "Name[be]": "Прастора апавяшчэнняў",
        "Name[bg]": "Системен панел",
        "Name[bn]": "সিস্টেম ট্রে",
        "Name[bn_IN]": "সিস্টেম ট্রে",
        "Name[br]": "Barlenn ar reizhiad",
        "Name[bs]": "Sistemska kaseta",
        "Name[ca@valencia]": "Safata del sistema",
        "Name[ca]": "Safata del sistema",
        "Name[cs]": "Systémová část panelu",
        "Name[csb]": "Systemòwi zabiérnik",
        "Name[cy]": "Bar Tasgau",
        "Name[da]": "Statusområde",
        "Name[de]": "Systemabschnitt der Kontrollleiste",
        "Name[el]": "Πλαίσιο συστήματος",
        "Name[en_GB]": "System Tray",
        "Name[eo]": "Sistempleto",
        "Name[es]": "Bandeja del sistema",
        "Name[et]": "Süsteemne dokk",
        "Name[eu]": "Sistema-erretilua",
        "Name[fa]": "سینی سیستم",
        "Name[fi]": "Ilmoitusalue",
        "Name[fr]": "Boîte à miniatures",
        "Name[fy]": "Systeemfak",
        "Name[ga]": "Tráidire an Chórais",
        "Name[gl]": "Bandexa do sistema",
        "Name[gu]": "સિસ્ટમ ટ્રે",
        "Name[he]": "מגש המערכת",
        "Name[hi]": "तंत्र तश्तरी",
        "Name[hne]": "तंत्र तस्तरी",
        "Name[hr]": "Sistemski blok",
        "Name[hsb]": "Systemowa wotkładka",
        "Name[hu]": "Paneltálca",
        "Name[ia]": "Tabuliero de systema",
        "Name[id]": "System Tray",
        "Name[is]": "Kerfisbakki",
        "Name[it]": "Vassoio di sistema",
        "Name[ja]": "システムトレイ",
        "Name[ka]": "სისტემს კუთხე",
        "Name[kk]": "Жүйелік сөре",
        "Name[km]": "ថាស​ប្រព័ន្ធ",
        "Name[kn]": "ವ್ಯವಸ್ಥಾ ಖಾನೆ (ಟ್ರೇ)",
        "Name[ko]": "시스템 트레이",
        "Name[lt]": "Sistemos dėklas",
        "Name[lv]": "Sistēmas ikonu josla",
        "Name[mai]": "तंत्र तश्तरी",
        "Name[mk]": "Системска лента",
        "Name[ml]": "സിസ്റ്റം ട്രേ",
        "Name[mr]": "प्रणाली ट्रे",
        "Name[ms]": "Dulang Sistem",
        "Name[nb]": "Systemkurv",
        "Name[nds]": "Paneel-Systeemafsnitt",
        "Name[ne]": "प्रणाली ट्रे",
        "Name[nl]": "Systeemvak",
        "Name[nn]": "System­trau",
        "Name[or]": "ତନ୍ତ୍ର ଧାରକ",
        "Name[pa]": "ਸਿਸਟਮ ਟਰੇ",
        "Name[pl]": "Tacka systemowa",
        "Name[pt]": "Bandeja do Sistema",
        "Name[pt_BR]": "Área de notificação",
        "Name[ro]": "Tavă de sistem",
        "Name[ru]": "Системный лоток",
        "Name[se]": "Vuogádatgárcu",
        "Name[si]": "පද්ධතිය තැටිය",
        "Name[sk]": "Systémová lišta",
        "Name[sl]": "Sistemska vrstica",
        "Name[sr@ijekavian]": "системска касета",
        "Name[sr@ijekavianlatin]": "sistemska kaseta",
        "Name[sr@latin]": "sistemska kaseta",
        "Name[sr]": "системска касета",
        "Name[sv]": "Systembricka",
        "Name[ta]": "சாதனத் தட்டு",
        "Name[te]": "వ్యవస్థ ట్రె",
        "Name[tg]": "Лавҳачаи низомӣ",
        "Name[th]": "ถาดระบบ",
        "Name[tr]": "Sistem Tepsisi",
        "Name[ug]": "سىستېما قوندىقى",
        "Name[uk]": "Системний лоток",
        "Name[vi]": "Khay hệ thống",
        "Name[wa]": "Boesse ås imådjetes sistinme",
        "Name[x-test]": "xxSystem Trayxx",
        "Name[xh]": "Itreyi Yendlela yokusebenza",
        "Name[zh_CN]": "系统托盘",
        "Name[zh_TW]": "系統匣",
        "ServiceTypes": [
            "Plasma/Applet",
            "Plasma/Containment"
        ],
        "Version": "1.0",
        "Website": "https://www.kde.org/plasma-desktop"
    },
    "NoDisplay": true,
    "X-Plasma-API": "declarativeappletscript",
    "X-Plasma-ContainmentType": "Panel",
    "X-Plasma-MainScript": "ui/main.qml"
}
