{
    "KPlugin": {
        "Description": "Warns when running out of space on your home folder",
        "Description[ar]": "يحذّرك عندما تنفذ مساحة مجلد المنزل",
        "Description[az]": "Ev qovluğunda boş disk sahəsi azaldıqda bu haqda xəbərdarlıq edir.",
        "Description[be]": "Папярэджвае, калі ў хатнім каталозе сканчаецца месца",
        "Description[bg]": "Предупреждава при намаляване на свободното място на домашната директория",
        "Description[ca@valencia]": "Avisa quan s'exhaurix l'espai de la carpeta personal",
        "Description[ca]": "Avisa quan s'exhaureix l'espai de la carpeta personal",
        "Description[cs]": "Varování při blížícím se nedostatku místa v domácí složce",
        "Description[da]": "Advarer når du er ved at løbe tør for plads i din hjemmemappe",
        "Description[de]": "Gibt eine Warnung aus, wenn der freie Speicherplatz in Ihrem Persönlichen Ordner knapp wird",
        "Description[en_GB]": "Warns when running out of space on your home folder",
        "Description[es]": "Le avisa cuando se está quedando sin espacio en su carpeta personal",
        "Description[et]": "Hoiatus, kui kodukataloogis hakkab ruumi nappima",
        "Description[eu]": "Abisua ematen du, etxeko karpetan lekurik gabe gelditzen ari zarenean",
        "Description[fi]": "Varoittaa, kun kotikansiosta on tila loppumassa",
        "Description[fr]": "Avertit lorsque l'espace vient à manquer dans votre dossier utilisateur.",
        "Description[hu]": "Figyelmeztet, ha kezd elfogyni a szabad lemezterület a saját könyvtárában",
        "Description[ia]": "Il avisa quando il termina le spatio sur tu dossier domo (initio)",
        "Description[id]": "Memperingatkan jika kehabisan ruang kosong di folder berandamu",
        "Description[is]": "Varar við þegar lítið pláss er eftir í heimamöppunni þinni",
        "Description[it]": "Avvisa quando lo spazio nella tua cartella Home si sta esaurendo",
        "Description[ja]": "ホームフォルダの空き領域が少なくなったとき警告します",
        "Description[ka]": "გაგაფრთხილებთ, როცა თქვენს საწყის საქაღალდეში ადგილი გათავდება",
        "Description[ko]": "홈 폴더에 공간이 없을 때 알려 줍니다",
        "Description[lt]": "Įspėja, kai namų aplanke baigiasi laisva vieta",
        "Description[nl]": "Geeft een waarschuwing bij een lage stand van de vrije ruimte voor uw persoonlijke map",
        "Description[nn]": "Varslar når det er lite plass i heimemappa",
        "Description[pa]": "ਚੇਤਾਵਨੀ ਦਿਉ, ਜਦੋਂ ਤੁਹਾਡੇ ਘਰ ਫੋਲਡਰ ਉੱਤੇ ਥਾਂ ਖਤਮ ਹੋ ਰਹੀ ਹੋਵੇ",
        "Description[pl]": "Ostrzega, kiedy zaczyna brakować miejsca w katalogu domowym",
        "Description[pt]": "Avisa se estiver com falta de espaço na sua pasta pessoal",
        "Description[pt_BR]": "Avisa quando ficar sem espaço na sua pasta pessoal",
        "Description[ro]": "Atenționează când spațiul de stocare din dosarul acasă este pe cale să se termine",
        "Description[ru]": "Предупреждает о нехватке дискового пространства в домашней папке",
        "Description[sk]": "Upozorňuje, keď dochádza voľné miesto v domovskom priečinku",
        "Description[sl]": "Opozori, ko v domači mapi primanjkuje prostora",
        "Description[sv]": "Varnar när utrymmet i hemkatalogen håller på att ta slut",
        "Description[ta]": "உங்கள் முகப்பு அடைவில் காலியிடம் குறைவாக இருந்தால் எச்சரிக்கும்",
        "Description[tr]": "Ana klasörünüzdeki boş alan azaldığı zaman uyarır",
        "Description[uk]": "Попереджає, якщо у домашній теці залишається мало місця",
        "Description[vi]": "Cảnh báo khi sắp hết không gian cho thư mục nhà của bạn",
        "Description[x-test]": "xxWarns when running out of space on your home folderxx",
        "Description[zh_CN]": "在主目录磁盘空间不足时发出警告",
        "Description[zh_TW]": "當您的家目錄剩餘空間即將不足時警告您",
        "Name": "Free Space Notifier",
        "Name[ar]": "مُخطِر المساحة الحرّة",
        "Name[az]": "Diskin boş sahəsinin izlənməsi",
        "Name[be]": "Апавяшчэнні пра вольнае месца",
        "Name[bg]": "Уведомяване за свободно пространство",
        "Name[bs]": "Izvještač o slobodnom prostoru",
        "Name[ca@valencia]": "Notificador d'espai lliure",
        "Name[ca]": "Notificador d'espai lliure",
        "Name[cs]": "Informace o volném místě",
        "Name[da]": "Bekendtgørelse om ledig plads",
        "Name[de]": "Speicherplatzbenachrichtigung",
        "Name[el]": "Ειδοποίηση ελεύθερου χώρου",
        "Name[en_GB]": "Free Space Notifier",
        "Name[eo]": "Atentigilo pri Libera Spaco",
        "Name[es]": "Notificador de espacio libre",
        "Name[et]": "Vaba ruumi teavitaja",
        "Name[eu]": "Leku askearen jakinarazlea",
        "Name[fi]": "Vapaan tilan ilmoitin",
        "Name[fr]": "Notification d'espace libre",
        "Name[ga]": "Fógróir Spáis Shaoir",
        "Name[gl]": "Notificador de espazo libre",
        "Name[he]": "Free Space Notifier",
        "Name[hi]": "खाली स्थान सूचक",
        "Name[hr]": "Glasnik slobodnog prostora",
        "Name[hsb]": "Zdźělenka wo swobodnym rumje",
        "Name[hu]": "Szabad hely értesítő",
        "Name[ia]": "Notificator de spatio libere",
        "Name[id]": "Penotifikasi Ruang Bebas",
        "Name[is]": "Tilkynningar um laust pláss",
        "Name[it]": "Notificatore dello spazio libero",
        "Name[ja]": "空き領域の通知",
        "Name[ka]": "ადგილის გაფრთხილება",
        "Name[kk]": "KDE-нің бос орын туралы құлақтандыруы",
        "Name[km]": "កម្មវិធី​ជូនដំណឹង​​ទំហំ​ទំនេរ",
        "Name[kn]": "ಖಾಲಿ ಜಾಗ ಸೂಚಕ",
        "Name[ko]": "남은 공간 알림이",
        "Name[lt]": "Laisvos vietos pranešėjas",
        "Name[lv]": "Brīvās vietas ziņotājs",
        "Name[ml]": "ലഭ്യമായ സ്ഥലം അറിയിക്കുന്നതിനുള്ള സംവിധാനം",
        "Name[mr]": "मोकळी जागा निदर्शक",
        "Name[nb]": "Ledig plass-varsler",
        "Name[nds]": "Freeruumbescheden",
        "Name[nl]": "Vrije ruimte-melder",
        "Name[nn]": "Varsel om lite ledig plass",
        "Name[pa]": "ਖਾਲੀ ਥਾਂ ਨੋਟੀਫਾਇਰ",
        "Name[pl]": "Powiadomienie o wolnym miejscu",
        "Name[pt]": "Notificação de Espaço Livre",
        "Name[pt_BR]": "Notificação de espaço livre",
        "Name[ro]": "Notificare spațiu liber",
        "Name[ru]": "Слежение за свободным местом на диске",
        "Name[si]": "හිස් ඉඩ දැනුම් දෙන්නා",
        "Name[sk]": "Monitor voľného miesta",
        "Name[sl]": "Obvestilnik o še prostem prostoru",
        "Name[sr@ijekavian]": "Извјештавач о слободном простору",
        "Name[sr@ijekavianlatin]": "Izvještavač o slobodnom prostoru",
        "Name[sr@latin]": "Izveštavač o slobodnom prostoru",
        "Name[sr]": "Извештавач о слободном простору",
        "Name[sv]": "Information om ledigt utrymme",
        "Name[ta]": "காலியிட அறிவிப்பான்",
        "Name[th]": "ตัวแจ้งพื้นที่ว่าง",
        "Name[tr]": "Boş Alan Bildirici",
        "Name[ug]": "بىكار بوشلۇق خەۋەرچىسى",
        "Name[uk]": "Сповіщення про вільне місце",
        "Name[vi]": "Trình thông báo không gian trống",
        "Name[wa]": "Notifieu del plaece di libe",
        "Name[x-test]": "xxFree Space Notifierxx",
        "Name[zh_CN]": "空闲空间通知器",
        "Name[zh_TW]": "剩餘空間通知"
    },
    "X-KDE-Kded-autoload": true
}
