{
    "KPlugin": {
        "BugReportUrl": "https://bugs.kde.org/enter_bug.cgi?product=systemsettings&component=kcm_cursortheme",
        "Description": "Choose mouse cursor theme",
        "Description[ar]": "اختر سِمة المؤشر",
        "Description[az]": "Siçan kursoru mövzusunu seçmək",
        "Description[be]": "Выбар тэмы курсора мышы",
        "Description[bg]": "Изберете тема на курсора на мишката",
        "Description[ca@valencia]": "Seleccioneu el tema del cursor del ratolí",
        "Description[ca]": "Trieu el tema del cursor del ratolí",
        "Description[cs]": "Zvolte motiv ukazatele myši",
        "Description[da]": "Vælg tema for musemarkøren",
        "Description[de]": "Design für den Mauszeiger auswählen",
        "Description[en_GB]": "Choose mouse cursor theme",
        "Description[es]": "Escoger un tema de cursores para el ratón",
        "Description[et]": "Hiirekursori teema valimine",
        "Description[eu]": "Hautatu sagu-kurtsore gaia",
        "Description[fi]": "Valitse hiiriosoitinteema",
        "Description[fr]": "Sélectionner un thème de pointeur de souris",
        "Description[hu]": "Az egér kurzortémájának kiválasztása",
        "Description[ia]": "Selige le thema de cursor de mus",
        "Description[id]": "Memilih tema kursor mouse",
        "Description[is]": "Veldu bendilþema",
        "Description[it]": "Scegli tema dei puntatori del mouse",
        "Description[ja]": "マウスカーソルテーマを選択",
        "Description[ka]": "აირჩეთ თაგუნას კურსორის თემა",
        "Description[ko]": "마우스 커서 테마 선택",
        "Description[lt]": "Pasirinkti pelės žymeklio apipavidalinimą",
        "Description[nl]": "Muiscursorthema kiezen",
        "Description[nn]": "Vel peikartema",
        "Description[pa]": "ਮਾਊਸ ਕਰਸਰ ਥੀਮ ਚੁਣੋ",
        "Description[pl]": "Wybierz zestaw wskaźników myszy",
        "Description[pt]": "Escolher o tema de cursores do rato",
        "Description[pt_BR]": "Escolha o tema do cursor do mouse",
        "Description[ro]": "Alege tematica cursorului mausului",
        "Description[ru]": "Выбор набора курсоров мыши",
        "Description[sk]": "Vybrať tému kurzora myši",
        "Description[sl]": "Izberite temo kazalke miši",
        "Description[sv]": "Välj muspekartema",
        "Description[ta]": "சுட்டிக்குறி திட்டத்தை தேர்ந்தெடுங்கள்",
        "Description[tr]": "Fare imleci teması seçin",
        "Description[uk]": "Вибір теми вказівника миші",
        "Description[vi]": "Chọn chủ đề của con trỏ chuột",
        "Description[x-test]": "xxChoose mouse cursor themexx",
        "Description[zh_CN]": "选择鼠标光标主题",
        "Description[zh_TW]": "選擇滑鼠游標主題",
        "Icon": "preferences-desktop-cursors",
        "Name": "Cursors",
        "Name[ar]": "المؤشرات",
        "Name[az]": "Kursorlar",
        "Name[be]": "Курсоры",
        "Name[bg]": "Курсори",
        "Name[ca@valencia]": "Cursors",
        "Name[ca]": "Cursors",
        "Name[cs]": "Kurzory",
        "Name[da]": "Markører",
        "Name[de]": "Zeiger",
        "Name[en_GB]": "Cursors",
        "Name[es]": "Cursores",
        "Name[et]": "Kursorid",
        "Name[eu]": "Kurtsoreak",
        "Name[fi]": "Osoittimet",
        "Name[fr]": "Pointeurs",
        "Name[hi]": "कर्सर",
        "Name[hsb]": "Cursory",
        "Name[hu]": "Kurzorok",
        "Name[ia]": "Cursores",
        "Name[id]": "Kursor",
        "Name[is]": "Bendlar",
        "Name[it]": "Puntatori",
        "Name[ja]": "カーソル",
        "Name[ka]": "კურსორები",
        "Name[ko]": "커서",
        "Name[lt]": "Žymekliai",
        "Name[ml]": "ചൂണ്ടുവിരലുകൾ",
        "Name[nl]": "Cursors",
        "Name[nn]": "Peikarar",
        "Name[pa]": "ਕਰਸਰਾਂ",
        "Name[pl]": "Wskaźniki",
        "Name[pt]": "Cursores",
        "Name[pt_BR]": "Cursores",
        "Name[ro]": "Cursori",
        "Name[ru]": "Курсоры мыши",
        "Name[sk]": "Kurzory",
        "Name[sl]": "Kazalke",
        "Name[sv]": "Pekare",
        "Name[ta]": "சுட்டிக்குறிகள்",
        "Name[tg]": "Курсорҳои муш",
        "Name[tr]": "İmleçler",
        "Name[uk]": "Вказівники",
        "Name[vi]": "Con trỏ",
        "Name[x-test]": "xxCursorsxx",
        "Name[zh_CN]": "光标",
        "Name[zh_TW]": "游標"
    },
    "X-DocPath": "kcontrol/cursortheme/index.html",
    "X-KDE-Keywords": "Mouse,Cursor,Theme,Cursor Appearance,Cursor Color,Cursor Theme,Mouse Theme,Mouse Appearance,Mouse Skin,Pointer Colors,Pointer Appearance,cursor skin,cursor style,cursor size,mouse style,pointer,start,launch,busy,feedback,mouse,pointer,bounce,bouncing,rotating,spinning,startup,start-up,program,report,taskbar,animation,loading",
    "X-KDE-Keywords[ar]": "فأرة,مؤشر,سمة,مظهر المؤشر,لون المؤشر, سمة,سمة المؤشر,مظهر الفأرة,جلد الفأرة,لون المؤشر,مظهر المؤشر",
    "X-KDE-Keywords[az]": "Mouse,Cursor,Theme,Cursor Appearance,Cursor Color,Cursor Theme,Mouse Theme,Mouse Appearance,Mouse Skin,Pointer Colors,Pointer Appearance,cursor skin,cursor style,cursor size,mouse style,pointer,Siçan,kursor,mövzü,kursor görünüşü,kursor rəngi,kursor mövzusu,siçan görünüşü,siçan örtüyü,göstəricinin rəngi,göstəricinin görünüşü,kursor örtüyü,kursor tərzi,kursor ölçüsü,siçan tərzi,göstərici",
    "X-KDE-Keywords[ca]": "Ratolí,Cursor,Tema,Aparença de cursor,Color de cursor,Tema de cursor,Tema de ratolí,Aparença de ratolí,Pell de ratolí,Colors d'apuntador,Aparença d'apuntador,pell de cursor,estil de cursor,mida de cursor,estil de ratolí,apuntador",
    "X-KDE-Keywords[cs]": "myš,kurzor,téma,vzhled kurzoru,barva kurzoru,motivy kurzoru,motiv myši,vzhled myši,barvy ukazatele,styl ukazatele,motiv kurzoru,styl kurzoru,velikost kurzoru,styl myši,ukazatel,",
    "X-KDE-Keywords[es]": "Ratón,mouse,cursor,tema,aspecto del cursor,apariencia del cursor,color del cursor,tema de cursores,tema del ratón,aspecto del ratón,piel del ratón,colores del puntero,aspecto del puntero,piel del cursor,estilo del cursor,tamaño del cursor,estilo del ratón,puntero,",
    "X-KDE-Keywords[eu]": "sagua,kurtsorea,gaia,kurtsorearen itxura,kurtsorearen kolorea,kurtsorearen gaia, saguaren gaia,saguaren itxura,saguaren azala,erakuslearen koloreak,erakuslearen itxura,kurtsorearen azala,kurtsorearen estiloa,kurtsorearen neurria,saguaren estiloa,erakuslea,",
    "X-KDE-Keywords[fr]": "Souris, curseur, thème, apparence du pointeur, couleur du pointeur, thème de pointeurs, thème de souris, apparence de la souris, habillage de souris, couleurs de pointeurs, apparence de pointeurs, habillage de pointeurs, style de pointeurs, taille de pointeur, style de souris, pointeur",
    "X-KDE-Keywords[hu]": "Egér,Kurzor,Téma,Kurzormegjelenés,Kurzorszín,Kurzortéma,Egértéma,Egérmegjelenés,Egérfelszín,Mutatószínek,Mutató-megjelenés,kurzorfelszín,kurzorszílus,kurzorméret,egérstílus,mutató,",
    "X-KDE-Keywords[ia]": "Mus,Cursor,Thema,Apparentia de Cursor,Color de Cursor,Thema de Cursor,Thema de Mus, Apparentia de Mus,Apparentia de Mus,Colores de punctator,Apparentia de punctator, apparentia de cursor, grandor de cursor,stilo de cursor,stilo de mus,punctator",
    "X-KDE-Keywords[it]": "Mouse,Puntatore,Tema,Aspetto puntatore,Colore puntatore,Tema puntatore,Tema mouse,Aspetto mouse,Skin mouse,Colori puntatore,Aspetto puntatore,skin puntatore,stile puntatore,dimensioni puntatore,stile mouse,puntatore,",
    "X-KDE-Keywords[ko]": "Mouse,Cursor,Theme,Cursor Appearance,Cursor Color,Cursor Theme,Mouse Theme,Mouse Appearance,Mouse Skin,Pointer Colors,Pointer Appearance,cursor skin,cursor style,cursor size,mouse style,pointer,마우스,커서,테마,커서 색상,커서 테마,마우스 테마,마우스 모양,마우스 스킨,포인터 색상,포인터 모양,커서 스타일,커서 크기,마우스 스타일,포인터",
    "X-KDE-Keywords[nl]": "Muis,Cursor,Thema,Uiterlijk van cursor,kleur van cursor,Thema van cursor,Thema van muis,uiterlijk van muis,Muisoppervlak,Kleuren van aanwijzer,Uiterlijk van aanwijzer,uiterlijk van cursor,cursorstijl,cursorgrootte, muisstijl,aanwijzer,",
    "X-KDE-Keywords[pl]": "Mysz,Kursor,Motyw,Wygląd kursora,Kolor kursora,Motyw kursora,Motyw myszy,Wygląd myszy,Skórka myszy,Kolory wskaźnika,Wygląd wskaźnika,skórka myszy,wygląd wskaźnika,rozmiar wskaźnika,styl myszy,wskaźnik",
    "X-KDE-Keywords[pt]": "Rato,Cursor,Tema,Aparência do Cursor,Cor do Cursor,Tema do Cursor,Tema do Rato,Aparência do Rato,Visuais do Rato,Cores do Ponteiro,Aparência do Ponteiro,visual do cursor,estilo do cursor,estilo do rato,ponteiro,",
    "X-KDE-Keywords[pt_BR]": "mouse,cursor,tema,aparência do cursor,cor do cursor,tema do cursor,tema do mouse,aparência do mouse,visuais do mouse,cores do ponteiro,aparência do ponteiro,visual do cursor,estilo do cursor,tamanho do cursor,estilo do mouse,ponteiro,",
    "X-KDE-Keywords[ru]": "Mouse,Cursor,Theme,Cursor Appearance,Cursor Color,Cursor Theme,Mouse Theme,Mouse Appearance,Mouse Skin,Pointer Colors,Pointer Appearance,cursor skin,cursor style,cursor size,mouse style,pointer,мышь,курсор,тема,внешний вид курсора мыши,цвет указателя,внешний вид указателя,размер указателя,размер курсора мыши,указатель",
    "X-KDE-Keywords[sk]": "Myš,Kurzor,Téma,Vzhľad kurzora,motív,Farba kurzora,Téma kurzora,Téma myši,Vzhľad myši,Skin myši,Farby ukazovateľa,Vzhľad ukazovateľa,Skin kurzora,štýl kurzora,štýl myši,ukazovateľ,",
    "X-KDE-Keywords[sl]": "Miška,Kazalka,Tema,Videz kazalke,Barva kazalke,Tema kazalke,Tema miške,Videz,Preobleke,barve miške,barva kazalke,videz kazalke,slog kazalke,slog miške,kazalec,",
    "X-KDE-Keywords[sv]": "Mus,Pekare,Tema,Utseende,Pekarfärg,Pekartema,Mustema,Musutseende,Musskal,Pekarfärger,Pekarutseende,färgskal,pekarstil,pekarstorlek,musstil,pekare",
    "X-KDE-Keywords[ta]": "Mouse,Cursor,Theme,Cursor Appearance,Cursor Color,Cursor Theme,Mouse Theme,Mouse Appearance,Mouse Skin,Pointer Colors,Pointer Appearance, ,cursor skin, cursor style, cursor size, mouse style,pointer, சுட்டி,சுட்டுக்குறி, இடஞ்சுட்டி, சுட்டி நிறம், சுட்டி வண்ணம், சுட்டிக்குறி நிறம், சுட்டிக்குறி வண்ணம்,சுட்டிக்குறி தோற்றம், சுட்டிக்குறி அளவு,",
    "X-KDE-Keywords[uk]": "миша,вказівник,тема,вигляд вказівника,колір вказівника,тема вказівника,тема миші,вигляд миші,стиль вказівника,розмір вказівника,стиль миші,Mouse,Cursor,Theme,Cursor Appearance,Cursor Color,Cursor Theme,Mouse Theme,Mouse Appearance,Mouse Skins,Pointer Colors,Pointer Appearance,cursor skin,cursor style,cursor size,mouse style,pointer",
    "X-KDE-Keywords[vi]": "Mouse,Cursor,Theme,Cursor Appearance,Cursor Color,Cursor Theme,Mouse Theme,Mouse Appearance,Mouse Skin,Pointer Colors,Pointer Appearance,cursor skin,cursor style,cursor size,mouse style,pointer,chuột,con trỏ,chủ đề,diện mạo con trỏ,màu con trỏ,chủ đề của con trỏ,chủ đề của chuột,diện mạo chuột,da chuột,da con trỏ,kiểu cách con trỏ,kích cỡ con trỏ,kiểu cách chuột",
    "X-KDE-Keywords[x-test]": "xxMousexx,xxCursorxx,xxThemexx,xxCursor Appearancexx,xxCursor Colorxx,xxCursor Themexx,xxMouse Themexx,xxMouse Appearancexx,xxMouse Skinxx,xxPointer Colorsxx,xxPointer Appearancexx,xxcursor skinxx,xxcursor stylexx,xxcursor sizexx,xxmouse stylexx,xxpointerxx,",
    "X-KDE-Keywords[zh_CN]": "Mouse,Cursor,Theme,Cursor Appearance,Cursor Color,Cursor Theme,Mouse Theme,Mouse Appearance,Mouse Skin,Pointer Colors,Pointer Appearance,cursor skin,cursor style,mouse style,pointer,鼠标,光标,指针,主题,光标外观,光标颜色,光标主题,光标风格,鼠标主题,鼠标外观,鼠标样式,鼠标风格,鼠标皮肤,指针颜色,指针外观,指针皮肤,指针大小,",
    "X-KDE-System-Settings-Parent-Category": "appearance",
    "X-KDE-Weight": 70
}
