{
    "KPlugin": {
        "Authors": [
            {
                "Email": "chani@kde.org",
                "Name": "Chani",
                "Name[ar]": "تشاني",
                "Name[az]": "Chani",
                "Name[be]": "Chani",
                "Name[bg]": "Chani",
                "Name[ca@valencia]": "Chani",
                "Name[ca]": "Chani",
                "Name[cs]": "Chani",
                "Name[da]": "Chani",
                "Name[de]": "Chani",
                "Name[en_GB]": "Chani",
                "Name[es]": "Chani",
                "Name[et]": "Chani",
                "Name[eu]": "Chani",
                "Name[fi]": "Chani",
                "Name[fr]": "Chani",
                "Name[hu]": "Chani",
                "Name[ia]": "Chani",
                "Name[id]": "Chani",
                "Name[is]": "Chani",
                "Name[it]": "Chani",
                "Name[ja]": "Chani",
                "Name[ka]": "Chani",
                "Name[ko]": "Chani",
                "Name[lt]": "Chani",
                "Name[nl]": "Chani",
                "Name[nn]": "Chani",
                "Name[pl]": "Chani",
                "Name[pt]": "Chani",
                "Name[pt_BR]": "Chani",
                "Name[ro]": "Chani",
                "Name[ru]": "Chani",
                "Name[sk]": "Chani",
                "Name[sl]": "Chani",
                "Name[sv]": "Chani",
                "Name[ta]": "இச்சானி",
                "Name[tr]": "Chani",
                "Name[uk]": "Chani",
                "Name[vi]": "Chani",
                "Name[x-test]": "xxChanixx",
                "Name[zh_CN]": "Chani"
            }
        ],
        "Description": "The menu that normally shows on right-click",
        "Description[ar]": "القائمة التي تظهر عادةً عند الضغط باليمين",
        "Description[az]": "Adi halda sağ kliklə açılan menyu",
        "Description[be]": "Меню, якое звычайна паказваецца пры пстрыканні правай кнопкай мышы",
        "Description[bg]": "Меню, което се показва при кликване с десен бутон",
        "Description[ca@valencia]": "Menú que es mostra normalment amb un clic del botó dret",
        "Description[ca]": "Menú que es mostra normalment amb un clic del botó dret",
        "Description[cs]": "Nabídka která se normálně zobrazuje po stisknutí pravého tlačítka",
        "Description[da]": "Menuen der normalt vises ved højreklik",
        "Description[de]": "Das Menü, das für gewöhnlich durch einen Rechtsklick geöffnet wird",
        "Description[en_GB]": "The menu that normally shows on right-click",
        "Description[eo]": "La menuo kiu kutime videblas per dekstra musklako",
        "Description[es]": "El menú que se suele mostrar al hacer clic derecho",
        "Description[et]": "Tavaliselt hiire parema nupu klõpsuga avanev menüü",
        "Description[eu]": "Eskuineko botoiarekin klik egitean agertu ohi den menua",
        "Description[fi]": "Tavallisesti hiiren oikealla painikkeella näytettävä valikko",
        "Description[fr]": "Le menu s'affichant normalement lors d'un clic droit.",
        "Description[hu]": "A jobb egérkattintásra megjelenő menü",
        "Description[ia]": "Le menu que normalmente monstra  sur le pression dextere",
        "Description[id]": "Menu yang biasanya tampil saat klik-kanan",
        "Description[is]": "Valmyndin sem kemur venjulega upp við hægrismell",
        "Description[it]": "Il menu che normalmente appare al clic destro",
        "Description[ja]": "通常は右クリックで表示されるメニュー",
        "Description[ka]": "მენიუ, რომელიც ჩვეულებრივ მარჯვენა-წკაპით გამოჩნდება",
        "Description[ko]": "오른쪽 단추를 클릭했을 때 나타나는 메뉴",
        "Description[lt]": "Meniu, kuris įprastai rodomas spustelėjus dešiniuoju pelės mygtuku",
        "Description[nl]": "Het menu dat normaal verschijnt bij rechtsklikken",
        "Description[nn]": "Menyen som vanlegvis vert vist ved høgreklikking",
        "Description[pa]": "ਮੇਨੂ, ਜੋ ਕਿ ਸੱਜੇ ਕਲਿੱਕ ਨਾਲ ਦਿਖਾਈ ਦਿੰਦਾ ਹੈ",
        "Description[pl]": "Wyświetla menu normalnie wyświetlane po naciśnięciu prawym przyciskiem myszy",
        "Description[pt]": "O menu que aparece normalmente com o botão direito",
        "Description[pt_BR]": "O menu que normalmente aparece ao clicar com o botão direito",
        "Description[ro]": "Meniul ce apare de obicei la clic-dreapta",
        "Description[ru]": "Меню, которое обычно открывается правой кнопкой мыши",
        "Description[sk]": "Ponuka, ktorá sa zvyčajne zobrazuje po kliknutí pravým tlačidlom myši",
        "Description[sl]": "Meni, ki se običajno prikaže ob desnem kliku miške",
        "Description[sv]": "Meny som normalt visas med högerklick",
        "Description[ta]": "வலது-க்ளிக் செய்யும்போது காட்டப்படும் பட்டி",
        "Description[tr]": "Normalde sağ tıklama ile gösterilen menü",
        "Description[uk]": "Меню, яке буде показано у відповідь на клацання правою кнопкою миші",
        "Description[vi]": "Trình đơn thường thấy khi bấm phải",
        "Description[x-test]": "xxThe menu that normally shows on right-clickxx",
        "Description[zh_CN]": "通常在点击右键时显示的菜单",
        "Description[zh_TW]": "通常由滑鼠右鍵叫出的選單",
        "EnabledByDefault": true,
        "Icon": "help-contextual",
        "Id": "org.kde.contextmenu",
        "License": "GPL",
        "Name": "Standard Menu",
        "Name[ar]": "قائمة قياسية",
        "Name[az]": "Standart Menyu",
        "Name[be]": "Стандартнае меню",
        "Name[bg]": "Стандартно меню",
        "Name[bs]": "Standardni meni",
        "Name[ca@valencia]": "Menú estàndard",
        "Name[ca]": "Menú estàndard",
        "Name[cs]": "Standardní nabídka",
        "Name[csb]": "Standardowé menu",
        "Name[da]": "Standardmenu",
        "Name[de]": "Standard-Menü",
        "Name[el]": "Τυπικό Μενού",
        "Name[en_GB]": "Standard Menu",
        "Name[eo]": "Defaŭlta Menuo",
        "Name[es]": "Menú estándar",
        "Name[et]": "Standardmenüü",
        "Name[eu]": "Menu estandarra",
        "Name[fi]": "Vakiovalikko",
        "Name[fr]": "Menu standard",
        "Name[fy]": "Standert menu",
        "Name[ga]": "Gnáthroghchlár",
        "Name[gl]": "Menú estándar",
        "Name[he]": "תפריט רגיל",
        "Name[hi]": "मानक मीनु",
        "Name[hr]": "Standardni izbornik",
        "Name[hsb]": "Standardny meni",
        "Name[hu]": "Standard menü",
        "Name[ia]": "Menu standard",
        "Name[id]": "Menu Standar",
        "Name[is]": "Hefðbundin valmynd",
        "Name[it]": "Menu standard",
        "Name[ja]": "標準メニュー",
        "Name[ka]": "სტანდარტული მენიუ",
        "Name[kk]": "Стандартты мәзір",
        "Name[km]": "ម៉ឺនុយ​ស្តង់ដារ",
        "Name[kn]": "ಶಿಷ್ಟ ಪರಿವಿಡಿ",
        "Name[ko]": "표준 메뉴",
        "Name[lt]": "Standartinis meniu",
        "Name[lv]": "Konteksta izvēlne",
        "Name[mk]": "Стандардно мени",
        "Name[ml]": "സ്റ്റാന്‍ഡര്‍ഡ് മെനു",
        "Name[mr]": "प्रमाणित मेन्यू",
        "Name[nb]": "Standardmeny",
        "Name[nds]": "Standardmenü",
        "Name[nl]": "Standaardmenu",
        "Name[nn]": "Standard­meny",
        "Name[pa]": "ਸਟੈਂਡਰਡ ਮੇਨੂ",
        "Name[pl]": "Menu standardowe",
        "Name[pt]": "Menu Normal",
        "Name[pt_BR]": "Menu padrão",
        "Name[ro]": "Meniu standard",
        "Name[ru]": "Стандартное контекстное меню",
        "Name[si]": "සම්මත මෙනුව",
        "Name[sk]": "Štandardná ponuka",
        "Name[sl]": "Običajni meni",
        "Name[sr@ijekavian]": "стандардни мени",
        "Name[sr@ijekavianlatin]": "standardni meni",
        "Name[sr@latin]": "standardni meni",
        "Name[sr]": "стандардни мени",
        "Name[sv]": "Standardmeny",
        "Name[ta]": "செந்தர பட்டி",
        "Name[tg]": "Феҳристи стандартӣ",
        "Name[th]": "เมนูมาตรฐาน",
        "Name[tr]": "Standart Menü",
        "Name[ug]": "ئۆلچەملىك تىزىملىك",
        "Name[uk]": "Стандартне меню",
        "Name[vi]": "Trình đơn chuẩn",
        "Name[wa]": "Dressêye sitandård",
        "Name[x-test]": "xxStandard Menuxx",
        "Name[zh_CN]": "标准菜单",
        "Name[zh_TW]": "標準選單",
        "Version": "pre0.1",
        "Website": "https://www.kde.org/plasma-desktop"
    },
    "X-Plasma-HasConfigurationInterface": true
}
