{
    "KPlugin": {
        "Authors": [
            {
                "Email": "damu@iki.fi",
                "Name": "Petri Damstén",
                "Name[ar]": "Petri Damstén",
                "Name[az]": "Petri Damstén",
                "Name[be]": "Petri Damstén",
                "Name[bg]": "Petri Damstén",
                "Name[ca@valencia]": "Petri Damstén",
                "Name[ca]": "Petri Damstén",
                "Name[cs]": "Petri Damstén",
                "Name[da]": "Petri Damstén",
                "Name[de]": "Petri Damstén",
                "Name[en_GB]": "Petri Damstén",
                "Name[es]": "Petri Damstén",
                "Name[et]": "Petri Damstén",
                "Name[eu]": "Petri Damstén",
                "Name[fi]": "Petri Damstén",
                "Name[fr]": "Petri Damstén",
                "Name[hu]": "Petri Damstén",
                "Name[ia]": "Petri Damstén",
                "Name[id]": "Petri Damstén",
                "Name[is]": "Petri Damstén",
                "Name[it]": "Petri Damstén",
                "Name[ja]": "Petri Damstén",
                "Name[ka]": "პეტრი დამშტენი",
                "Name[ko]": "Petri Damstén",
                "Name[lt]": "Petri Damstén",
                "Name[nl]": "Petri Damstén",
                "Name[nn]": "Petri Damstén",
                "Name[pl]": "Petri Damstén",
                "Name[pt]": "Petri Damstén",
                "Name[pt_BR]": "Petri Damstén",
                "Name[ro]": "Petri Damstén",
                "Name[ru]": "Petri Damstén",
                "Name[sk]": "Petri Damstén",
                "Name[sl]": "Petri Damstén",
                "Name[sv]": "Petri Damstén",
                "Name[ta]": "பெட்ரி டாம்ஸ்டென்",
                "Name[tr]": "Petri Damstén",
                "Name[uk]": "Petri Damstén",
                "Name[vi]": "Petri Damstén",
                "Name[x-test]": "xxPetri Damsténxx",
                "Name[zh_CN]": "Petri Damstén"
            }
        ],
        "Category": "",
        "Description": "Geolocation Data Engine",
        "Description[ar]": "محرّك بيانات الموقع الجغرافي",
        "Description[az]": "Coğrafi məkan haqqında məlumat mənbəyi",
        "Description[be]": "Сістэма вызначэння даных геалакацыі",
        "Description[bg]": "Енджин за данни за геолокация",
        "Description[ca@valencia]": "Motor de dades de geolocalització",
        "Description[ca]": "Motor de dades de geolocalització",
        "Description[cs]": "Datový nástroj geolokace",
        "Description[da]": "Datamotor til geo-lokalisering",
        "Description[de]": "Datentreiber für Geolokalisierung",
        "Description[en_GB]": "Geolocation Data Engine",
        "Description[eo]": "Datuma motoro de GeoLokado",
        "Description[es]": "Motor de datos de geolocalización",
        "Description[et]": "Geolokatsiooni andmete mootor",
        "Description[eu]": "Geokokapen datuen motorra",
        "Description[fi]": "Sijaintitietomoottori",
        "Description[fr]": "Moteur de données de géo-localisation",
        "Description[hu]": "Kezelőmodul a földrajzi helyzet kiírásához",
        "Description[ia]": "Motor de datos de geolocation",
        "Description[id]": "Mesin Data Geolokasi",
        "Description[is]": "Gagnavél fyrir hnattstaðsetningu",
        "Description[it]": "Motore di dati per la geolocalizzazione",
        "Description[ja]": "ジオロケーション用データエンジン",
        "Description[ka]": "გეოლოკაციის მონაცემების ძრავა",
        "Description[ko]": "위치 데이터 엔진",
        "Description[lt]": "Geografinės vietos nustatymo duomenų variklis",
        "Description[nl]": "Geolocatie gegevensengine",
        "Description[nn]": "Geolocation-datamotor",
        "Description[pa]": "ਭੂਗੋਲਿਕ-ਟਿਕਾਣਾ ਡਾਟਾ ਇੰਜਣ",
        "Description[pl]": "Silnik danych geolokalizacji",
        "Description[pt]": "Motor de Dados de Geo-Localização",
        "Description[pt_BR]": "Mecanismo de dados de localização geográfica",
        "Description[ro]": "Motor de date Geolocalizare",
        "Description[ru]": "Источник данных о местоположении",
        "Description[sk]": "Dátový nástroj geolokalizácie",
        "Description[sl]": "Podatkovni pogon s podatki o geolokaciji",
        "Description[sv]": "Datagränssnitt för geografisk lokalisering",
        "Description[ta]": "புவியிருப்பிடத்தை வழங்கும் நிரல்",
        "Description[tr]": "Coğrafi Konum Veri Motoru",
        "Description[uk]": "Рушій даних геопозиціювання",
        "Description[vi]": "Dụng cụ dữ liệu định vị địa lí",
        "Description[x-test]": "xxGeolocation Data Enginexx",
        "Description[zh_CN]": "地理位置数据引擎",
        "Description[zh_TW]": "地理位置資料引擎",
        "Icon": "applications-internet",
        "Id": "geolocation",
        "Name": "Geolocation",
        "Name[ar]": "الموقع الجغرافي",
        "Name[az]": "Coğrafi məkan",
        "Name[be]": "Геалакацыя",
        "Name[bg]": "Геолокация",
        "Name[bs]": "Geolokacija",
        "Name[ca@valencia]": "Geolocalització",
        "Name[ca]": "Geolocalització",
        "Name[cs]": "Geolokace",
        "Name[csb]": "Geògrafnô lokalizacëjô",
        "Name[da]": "Geo-lokalisering",
        "Name[de]": "Geolokalisierung",
        "Name[el]": "Γεωτοποθέτηση",
        "Name[en_GB]": "Geolocation",
        "Name[eo]": "GeoLokado",
        "Name[es]": "Geolocalización",
        "Name[et]": "Geolokatsioon",
        "Name[eu]": "Geokokapena",
        "Name[fi]": "Paikkasijainti",
        "Name[fr]": "Géo-localisation",
        "Name[fy]": "Geolokaasje",
        "Name[ga]": "Geolocation",
        "Name[gl]": "Xeolocalización",
        "Name[he]": "מציאת מיקום גאוגרפי",
        "Name[hi]": "भौगोलिक स्थान",
        "Name[hr]": "Geolociranje",
        "Name[hsb]": "Geolokacija",
        "Name[hu]": "Földrajzi helyzet",
        "Name[ia]": "Geolocation",
        "Name[id]": "Geolokasi",
        "Name[is]": "Hnattstaðsetnings",
        "Name[it]": "Geolocalizzazione",
        "Name[ja]": "ジオロケーション",
        "Name[ka]": "გეოლოკაცია",
        "Name[kk]": "Жердегі орны",
        "Name[km]": "ទីតាំង​ភូមិសាស្ដ្រ",
        "Name[kn]": "ಭೂಪ್ರದೇಶ",
        "Name[ko]": "위치",
        "Name[lt]": "Geografinės vietos nustatymas",
        "Name[lv]": "Ģeolokācija",
        "Name[mk]": "Геолоцирање",
        "Name[ml]": "ഭൂസ്ഥാനങ്ങള്‍",
        "Name[mr]": "जिओलोकेशन",
        "Name[nb]": "Geografisk plassering",
        "Name[nds]": "Eersteden",
        "Name[nl]": "Geolocatie",
        "Name[nn]": "Geolocation",
        "Name[pa]": "ਭੂਗੋਲਿਕ ਟਿਕਾਣਾ",
        "Name[pl]": "Geolokalizacja",
        "Name[pt]": "Geo-Localização",
        "Name[pt_BR]": "Localização geográfica",
        "Name[ro]": "Geolocalizare",
        "Name[ru]": "Местоположение",
        "Name[si]": "පිහිටුම",
        "Name[sk]": "Geolokalizácia",
        "Name[sl]": "Geolokacija",
        "Name[sr@ijekavian]": "геолокација",
        "Name[sr@ijekavianlatin]": "geolokacija",
        "Name[sr@latin]": "geolokacija",
        "Name[sr]": "геолокација",
        "Name[sv]": "Geografisk lokalisering",
        "Name[ta]": "புவியிருப்பிடம்",
        "Name[tg]": "Ҷойгиршавии ҷуғрофӣ",
        "Name[th]": "การระบุพิกัดตำแหน่ง",
        "Name[tr]": "Coğrafi Konum",
        "Name[ug]": "جۇغراپىيىلىك ئورۇن",
        "Name[uk]": "Геопозиціювання",
        "Name[vi]": "Định vị địa lí",
        "Name[wa]": "Djeyoplaeçmint",
        "Name[x-test]": "xxGeolocationxx",
        "Name[zh_CN]": "地理位置",
        "Name[zh_TW]": "Geolocation",
        "Website": "https://kde.org/plasma-desktop"
    }
}
